8 Multicodes – Descriptive analysis in R
…
multis

# A tibble: 100 × 20
# Groups:   p_cat1, left_stem [10]
   cross_break predictor1 p_lab1       p_cat1 outcome o_lab o_cat stat  estimate
   <chr>       <chr>      <chr>        <chr>  <chr>   <chr> <fct> <chr>    <int>
 1 Total       Total      Total        Total  Q1_Opt… Q1: … Yes   count       57
 2 Total       Total      Total        Total  Q1_Opt… Q1: … No    count       43
 3 AgeGroup    AgeGroup   Respondent … 18–24  Q1_Opt… Q1: … Yes   count       12
 4 AgeGroup    AgeGroup   Respondent … 18–24  Q1_Opt… Q1: … No    count        8
 5 AgeGroup    AgeGroup   Respondent … 25–34  Q1_Opt… Q1: … Yes   count       18
 6 AgeGroup    AgeGroup   Respondent … 25–34  Q1_Opt… Q1: … No    count       12
 7 AgeGroup    AgeGroup   Respondent … 35–44  Q1_Opt… Q1: … Yes   count       15
 8 AgeGroup    AgeGroup   Respondent … 35–44  Q1_Opt… Q1: … No    count       15
 9 AgeGroup    AgeGroup   Respondent … 45+    Q1_Opt… Q1: … Yes   count       12
10 AgeGroup    AgeGroup   Respondent … 45+    Q1_Opt… Q1: … No    count        8
# ℹ 90 more rows
# ℹ 11 more variables: estimate_se <dbl>, unweighted_n <int>, base <int>,
#   base_description <chr>, p_method <lgl>, p_value <lgl>, lev_num <int>,
#   lev_relevant <dbl>, left_stem <chr>, stem_count <int>, base_count <int>
…
# If the column "cross_break" exists in the dataframe 'multis'...
if("cross_break" %in% names(multis)){
  # ...then create a new column 'left_stem2' by combining 'left_stem' and 'cross_break'
  multis <- multis %>% mutate(left_stem2 = paste0(left_stem, " - ", cross_break))
} else {
  # ...otherwise, just copy 'left_stem' into 'left_stem2'
  multis <- multis %>% mutate(left_stem2 = left_stem)
}

multis

# A tibble: 100 × 21
# Groups:   p_cat1, left_stem [10]
   cross_break predictor1 p_lab1       p_cat1 outcome o_lab o_cat stat  estimate
   <chr>       <chr>      <chr>        <chr>  <chr>   <chr> <fct> <chr>    <int>
 1 Total       Total      Total        Total  Q1_Opt… Q1: … Yes   count       57
 2 Total       Total      Total        Total  Q1_Opt… Q1: … No    count       43
 3 AgeGroup    AgeGroup   Respondent … 18–24  Q1_Opt… Q1: … Yes   count       12
 4 AgeGroup    AgeGroup   Respondent … 18–24  Q1_Opt… Q1: … No    count        8
 5 AgeGroup    AgeGroup   Respondent … 25–34  Q1_Opt… Q1: … Yes   count       18
 6 AgeGroup    AgeGroup   Respondent … 25–34  Q1_Opt… Q1: … No    count       12
 7 AgeGroup    AgeGroup   Respondent … 35–44  Q1_Opt… Q1: … Yes   count       15
 8 AgeGroup    AgeGroup   Respondent … 35–44  Q1_Opt… Q1: … No    count       15
 9 AgeGroup    AgeGroup   Respondent … 45+    Q1_Opt… Q1: … Yes   count       12
10 AgeGroup    AgeGroup   Respondent … 45+    Q1_Opt… Q1: … No    count        8
# ℹ 90 more rows
# ℹ 12 more variables: estimate_se <dbl>, unweighted_n <int>, base <int>,
#   base_description <chr>, p_method <lgl>, p_value <lgl>, lev_num <int>,
#   lev_relevant <dbl>, left_stem <chr>, stem_count <int>, base_count <int>,
#   left_stem2 <chr>
…
