5 Unweighted statistics – Descriptive analysis in R
…
5.2.2.1.5 Trial 5

unweighted_median(df2, outcomes = c("libauth"), predictors = list(c("skipmeal2","MuchPov2","RSex")), conf = "ci") %>% print()

# A tibble: 27 × 21
   cross_break      predictor1 predictor2 predictor3 p_lab1 p_lab2 p_lab3 p_cat1
   <chr>            <chr>      <chr>      <chr>      <chr>  <chr>  <chr>  <chr> 
 1 Total            Total      Total      Total      Total  Total  Total  Total 
 2 skipmeal2_X_Muc… skipmeal2  MuchPov2   RSex       How o… Some … Sex o… skip,…
 3 skipmeal2_X_Muc… skipmeal2  MuchPov2   RSex       How o… Some … Sex o… skip,…
 4 skipmeal2_X_Muc… skipmeal2  MuchPov2   RSex       How o… Some … Sex o… skip,…
 5 skipmeal2_X_Muc… skipmeal2  MuchPov2   RSex       How o… Some … Sex o… skip,…
 6 skipmeal2_X_Muc… skipmeal2  MuchPov2   RSex       How o… Some … Sex o… skip,…
 7 skipmeal2_X_Muc… skipmeal2  MuchPov2   RSex       How o… Some … Sex o… skip,…
 8 skipmeal2_X_Muc… skipmeal2  MuchPov2   RSex       How o… Some … Sex o… Never 
 9 skipmeal2_X_Muc… skipmeal2  MuchPov2   RSex       How o… Some … Sex o… Never 
10 skipmeal2_X_Muc… skipmeal2  MuchPov2   RSex       How o… Some … Sex o… Never 
# ℹ 17 more rows
# ℹ 13 more variables: p_cat2 <chr>, p_cat3 <chr>, outcome <chr>, o_lab <chr>,
#   o_cat <chr>, stat <chr>, estimate <dbl>, estimate_low <dbl>,
#   estimate_upp <dbl>, base <int>, base_description <lgl>, estimate_ci <chr>,
#   unweighted_n <int>
…
11 RAgeCat     RAgeCat    Age of resp… DK/Re… libauth Libe… sum   sum       9.67
12 Total       Total      Total        Total  leftri… Left… sum   sum    6542.  
13 RSex        RSex       Sex of resp… Male   leftri… Left… sum   sum    2910.  
14 RSex        RSex       Sex of resp… Female leftri… Left… sum   sum    3631.  
15 RAgeCat     RAgeCat    Age of resp… 18-24  leftri… Left… sum   sum     404.  
16 RAgeCat     RAgeCat    Age of resp… 25-34  leftri… Left… sum   sum     832.  
17 RAgeCat     RAgeCat    Age of resp… 35-44  leftri… Left… sum   sum    1076.  
18 RAgeCat     RAgeCat    Age of resp… 45-54  leftri… Left… sum   sum    1095.  
19 RAgeCat     RAgeCat    Age of resp… 55-59  leftri… Left… sum   sum     510.  
20 RAgeCat     RAgeCat    Age of resp… 60-64  leftri… Left… sum   sum     581.  
21 RAgeCat     RAgeCat    Age of resp… 65+    leftri… Left… sum   sum    2040.  
22 RAgeCat     RAgeCat    Age of resp… DK/Re… leftri… Left… sum   sum       4.8 
# ℹ 4 more variables: estimate_se <chr>, base <int>, base_description <lgl>,
#   unweighted_n <int>
# A tibble: 22 × 13
   cross_break predictor1 p_lab1       p_cat1 outcome o_lab o_cat stat  estimate
   <chr>       <chr>      <chr>        <chr>  <chr>   <chr> <chr> <chr>    <dbl>
 1 Total       Total      Total        Total  libauth Libe… sum   sum      9163.
 2 RSex        RSex       Sex of resp… Male   libauth Libe… sum   sum      4166.
 3 RSex        RSex       Sex of resp… Female libauth Libe… sum   sum      4997.
 4 RAgeCat     RAgeCat    Age of resp… 18-24  libauth Libe… sum   sum       540.
 5 RAgeCat     RAgeCat    Age of resp… 25-34  libauth Libe… sum   sum      1096 
 6 RAgeCat     RAgeCat    Age of resp… 35-44  libauth Libe… sum   sum      1444.
 7 RAgeCat     RAgeCat    Age of resp… 45-54  libauth Libe… sum   sum      1473.
 8 RAgeCat     RAgeCat    Age of resp… 55-59  libauth Libe… sum   sum       729.
 9 RAgeCat     RAgeCat    Age of resp… 60-64  libauth Libe… sum   sum       834.
10 RAgeCat     RAgeCat    Age of resp… 65+    libauth Libe… sum   sum      3038.
# ℹ 12 more rows
# ℹ 4 more variables: estimate_se <chr>, base <int>, base_description <lgl>,
#   unweighted_n <int>

5.2.3.1.2 Trial 2

trial2 <- unweighted_sum(df2, outcomes = c("libauth"), predictors = list("RSex","RAgeCat", c("skipmeal", "RSex")), conf = "ci", base = example_of_base_information) 
trial2 %>% print()

# A tibble: 31 × 18
   cross_break predictor1 predictor2 p_lab1   p_lab2 p_cat1 p_cat2 outcome o_lab
   <chr>       <chr>      <chr>      <chr>    <chr>  <chr>  <chr>  <chr>   <chr>
 1 Total       Total      Total      Total    Total  Total  Total  libauth Libe…
 2 RSex        RSex       Total      Sex of … Total  Male   Total  libauth Libe…
 3 RSex        RSex       Total      Sex of … Total  Female Total  libauth Libe…
 4 RAgeCat     RAgeCat    Total      Age of … Total  18-24  Total  libauth Libe…
 5 RAgeCat     RAgeCat    Total      Age of … Total  25-34  Total  libauth Libe…
 6 RAgeCat     RAgeCat    Total      Age of … Total  35-44  Total  libauth Libe…
 7 RAgeCat     RAgeCat    Total      Age of … Total  45-54  Total  libauth Libe…
 8 RAgeCat     RAgeCat    Total      Age of … Total  55-59  Total  libauth Libe…
 9 RAgeCat     RAgeCat    Total      Age of … Total  60-64  Total  libauth Libe…
10 RAgeCat     RAgeCat    Total      Age of … Total  65+    Total  libauth Libe…
# ℹ 21 more rows
# ℹ 9 more variables: o_cat <chr>, stat <chr>, estimate <dbl>,
#   estimate_low <dbl>, estimate_upp <dbl>, base <int>, base_description <chr>,
#   estimate_ci <chr>, unweighted_n <int>
…
5.2.3.1.3 Trial 3

trial3 <- unweighted_sum(df2, outcomes = c("welfare2"), predictors = list(c("skipmeal", "RSex", "RAgeCat")), conf = "ci") 
trial3 %>% print()

# A tibble: 127 × 21
   cross_break      predictor1 predictor2 predictor3 p_lab1 p_lab2 p_lab3 p_cat1
   <chr>            <chr>      <chr>      <chr>      <chr>  <chr>  <chr>  <chr> 
 1 Total            Total      Total      Total      Total  Total  Total  Total 
 2 skipmeal_X_RSex… skipmeal   RSex       RAgeCat    How o… Sex o… Age o… skip,…
 3 skipmeal_X_RSex… skipmeal   RSex       RAgeCat    How o… Sex o… Age o… skip,…
 4 skipmeal_X_RSex… skipmeal   RSex       RAgeCat    How o… Sex o… Age o… skip,…
 5 skipmeal_X_RSex… skipmeal   RSex       RAgeCat    How o… Sex o… Age o… skip,…
 6 skipmeal_X_RSex… skipmeal   RSex       RAgeCat    How o… Sex o… Age o… skip,…
 7 skipmeal_X_RSex… skipmeal   RSex       RAgeCat    How o… Sex o… Age o… skip,…
 8 skipmeal_X_RSex… skipmeal   RSex       RAgeCat    How o… Sex o… Age o… skip,…
 9 skipmeal_X_RSex… skipmeal   RSex       RAgeCat    How o… Sex o… Age o… skip,…
10 skipmeal_X_RSex… skipmeal   RSex       RAgeCat    How o… Sex o… Age o… skip,…
# ℹ 117 more rows
# ℹ 13 more variables: p_cat2 <chr>, p_cat3 <chr>, outcome <chr>, o_lab <chr>,
#   o_cat <chr>, stat <chr>, estimate <dbl>, estimate_low <dbl>,
#   estimate_upp <dbl>, base <int>, base_description <lgl>, estimate_ci <chr>,
#   unweighted_n <int>
…
write_function(unweighted_perc, folder = "Scripts")

5.2.4.1 Trials

5.2.4.1.1 Trial 1

trial1 <- unweighted_perc(df2, outcomes = c("skipmeal"), 
               predictors = list("RSex"), 
               conf = "ci", 
               base = example_of_base_information)
trial1 %>% print()

# A tibble: 30 × 15
   cross_break predictor1 p_lab1 p_cat1 outcome  o_lab      o_cat stat  estimate
   <chr>       <chr>      <chr>  <chr>  <chr>    <chr>      <fct> <chr>    <dbl>
 1 Total       Total      Total  Total  skipmeal How often… skip… perc   0.460  
 2 Total       Total      Total  Total  skipmeal How often… Never perc   0.436  
 3 Total       Total      Total  Total  skipmeal How often… Less… perc   0.0242 
 4 Total       Total      Total  Total  skipmeal How often… Once… perc   0.00993
 5 Total       Total      Total  Total  skipmeal How often… Seve… perc   0.0164 
 6 Total       Total      Total  Total  skipmeal How often… Once… perc   0.0121 
 7 Total       Total      Total  Total  skipmeal How often… Seve… perc   0.00931
 8 Total       Total      Total  Total  skipmeal How often… Ever… perc   0.00558
 9 Total       Total      Total  Total  skipmeal How often… Can'… perc   0.0167 
10 Total       Total      Total  Total  skipmeal How often… Not … perc   0.00931
# ℹ 20 more rows
# ℹ 6 more variables: estimate_low <dbl>, estimate_upp <dbl>,
#   unweighted_n <int>, base <int>, base_description <chr>, estimate_ci <chr>
…
5.2.4.1.2 Trial 2

unweighted_perc(df2, outcomes = c("skipmeal","RAgeCat"), 
               predictors = list("RSex","MuchPov"), 
               conf = "ci") %>% print()

# A tibble: 106 × 15
   cross_break predictor1 p_lab1 p_cat1 outcome  o_lab      o_cat stat  estimate
   <chr>       <chr>      <chr>  <chr>  <chr>    <chr>      <fct> <chr>    <dbl>
 1 Total       Total      Total  Total  skipmeal How often… skip… perc   0.460  
 2 Total       Total      Total  Total  skipmeal How often… Never perc   0.436  
 3 Total       Total      Total  Total  skipmeal How often… Less… perc   0.0242 
 4 Total       Total      Total  Total  skipmeal How often… Once… perc   0.00993
 5 Total       Total      Total  Total  skipmeal How often… Seve… perc   0.0164 
 6 Total       Total      Total  Total  skipmeal How often… Once… perc   0.0121 
 7 Total       Total      Total  Total  skipmeal How often… Seve… perc   0.00931
 8 Total       Total      Total  Total  skipmeal How often… Ever… perc   0.00558
 9 Total       Total      Total  Total  skipmeal How often… Can'… perc   0.0167 
10 Total       Total      Total  Total  skipmeal How often… Not … perc   0.00931
# ℹ 96 more rows
# ℹ 6 more variables: estimate_low <dbl>, estimate_upp <dbl>,
#   unweighted_n <int>, base <int>, base_description <lgl>, estimate_ci <chr>

5.2.4.1.3 Trial 3

trial3 <- 
  unweighted_perc(df2, outcomes = c("MuchPov"), 
               predictors = list(c("RSex","RAgeCat")), 
               conf = "se") 
trial3 %>% print()

# A tibble: 53 × 16
   cross_break   predictor1 predictor2 p_lab1 p_lab2 p_cat1 p_cat2 outcome o_lab
   <chr>         <chr>      <chr>      <chr>  <chr>  <chr>  <chr>  <chr>   <chr>
 1 Total         Total      Total      Total  Total  Total  Total  MuchPov Some…
 2 Total         Total      Total      Total  Total  Total  Total  MuchPov Some…
 3 Total         Total      Total      Total  Total  Total  Total  MuchPov Some…
 4 Total         Total      Total      Total  Total  Total  Total  MuchPov Some…
 5 RSex_X_RAgeC… RSex       RAgeCat    Sex o… Age o… Male   18-24  MuchPov Some…
 6 RSex_X_RAgeC… RSex       RAgeCat    Sex o… Age o… Male   18-24  MuchPov Some…
 7 RSex_X_RAgeC… RSex       RAgeCat    Sex o… Age o… Male   18-24  MuchPov Some…
 8 RSex_X_RAgeC… RSex       RAgeCat    Sex o… Age o… Male   25-34  MuchPov Some…
 9 RSex_X_RAgeC… RSex       RAgeCat    Sex o… Age o… Male   25-34  MuchPov Some…
10 RSex_X_RAgeC… RSex       RAgeCat    Sex o… Age o… Male   25-34  MuchPov Some…
# ℹ 43 more rows
# ℹ 7 more variables: o_cat <fct>, stat <chr>, estimate <dbl>,
#   estimate_se <dbl>, unweighted_n <int>, base <int>, base_description <lgl>
…
5.2.5.1 Trials

5.2.5.1.1 Trial 1

trial1 <- 
  unweighted_count(
    df2, 
    outcomes = c("skipmeal"), 
    predictors = list("RSex"), 
    conf = "ci", 
    base = example_of_base_information) 
trial1 %>% print()

# A tibble: 30 × 15
   cross_break predictor1 p_lab1 p_cat1 outcome  o_lab      o_cat stat  estimate
   <chr>       <chr>      <chr>  <chr>  <chr>    <chr>      <fct> <chr>    <int>
 1 Total       Total      Total  Total  skipmeal How often… skip… count     1483
 2 Total       Total      Total  Total  skipmeal How often… Never count     1407
 3 Total       Total      Total  Total  skipmeal How often… Less… count       78
 4 Total       Total      Total  Total  skipmeal How often… Once… count       32
 5 Total       Total      Total  Total  skipmeal How often… Seve… count       53
 6 Total       Total      Total  Total  skipmeal How often… Once… count       39
 7 Total       Total      Total  Total  skipmeal How often… Seve… count       30
 8 Total       Total      Total  Total  skipmeal How often… Ever… count       18
 9 Total       Total      Total  Total  skipmeal How often… Can'… count       54
10 Total       Total      Total  Total  skipmeal How often… Not … count       30
# ℹ 20 more rows
# ℹ 6 more variables: estimate_low <dbl>, estimate_upp <dbl>,
#   unweighted_n <int>, base <int>, base_description <chr>, estimate_ci <chr>
…
5.2.5.1.2 Trial 2

unweighted_count(df2, outcomes = c("skipmeal","RAgeCat"), 
               predictors = list("RSex","MuchPov"), 
               conf = "ci") %>% 
  print()

# A tibble: 106 × 15
   cross_break predictor1 p_lab1 p_cat1 outcome  o_lab      o_cat stat  estimate
   <chr>       <chr>      <chr>  <chr>  <chr>    <chr>      <fct> <chr>    <int>
 1 Total       Total      Total  Total  skipmeal How often… skip… count     1483
 2 Total       Total      Total  Total  skipmeal How often… Never count     1407
 3 Total       Total      Total  Total  skipmeal How often… Less… count       78
 4 Total       Total      Total  Total  skipmeal How often… Once… count       32
 5 Total       Total      Total  Total  skipmeal How often… Seve… count       53
 6 Total       Total      Total  Total  skipmeal How often… Once… count       39
 7 Total       Total      Total  Total  skipmeal How often… Seve… count       30
 8 Total       Total      Total  Total  skipmeal How often… Ever… count       18
 9 Total       Total      Total  Total  skipmeal How often… Can'… count       54
10 Total       Total      Total  Total  skipmeal How often… Not … count       30
# ℹ 96 more rows
# ℹ 6 more variables: estimate_low <dbl>, estimate_upp <dbl>,
#   unweighted_n <int>, base <int>, base_description <lgl>, estimate_ci <chr>

5.2.5.1.3 Trial 3

unweighted_count(df2, outcomes = c("MuchPov"), 
               predictors = list(c("RSex","RAgeCat")), 
               conf = "se") %>% 
  print()

# A tibble: 53 × 16
   cross_break   predictor1 predictor2 p_lab1 p_lab2 p_cat1 p_cat2 outcome o_lab
   <chr>         <chr>      <chr>      <chr>  <chr>  <chr>  <chr>  <chr>   <chr>
 1 Total         Total      Total      Total  Total  Total  Total  MuchPov Some…
 2 Total         Total      Total      Total  Total  Total  Total  MuchPov Some…
 3 Total         Total      Total      Total  Total  Total  Total  MuchPov Some…
 4 Total         Total      Total      Total  Total  Total  Total  MuchPov Some…
 5 RSex_X_RAgeC… RSex       RAgeCat    Sex o… Age o… Male   18-24  MuchPov Some…
 6 RSex_X_RAgeC… RSex       RAgeCat    Sex o… Age o… Male   18-24  MuchPov Some…
 7 RSex_X_RAgeC… RSex       RAgeCat    Sex o… Age o… Male   18-24  MuchPov Some…
 8 RSex_X_RAgeC… RSex       RAgeCat    Sex o… Age o… Male   25-34  MuchPov Some…
 9 RSex_X_RAgeC… RSex       RAgeCat    Sex o… Age o… Male   25-34  MuchPov Some…
10 RSex_X_RAgeC… RSex       RAgeCat    Sex o… Age o… Male   25-34  MuchPov Some…
# ℹ 43 more rows
# ℹ 7 more variables: o_cat <fct>, stat <chr>, estimate <int>,
#   estimate_se <dbl>, unweighted_n <int>, base <int>, base_description <lgl>
…
