6 Weighted statistics – Descriptive analysis in R
…
trial2 %>% print()

# A tibble: 22 × 13
   cross_break predictor1 p_lab1       p_cat1 outcome o_lab o_cat stat  estimate
   <chr>       <chr>      <chr>        <chr>  <chr>   <chr> <chr> <chr>    <dbl>
 1 Total       Total      Total        Total  libauth Libe… w_me… w_me…     3.49
 2 RSex        RSex       Sex of resp… Male   libauth Libe… w_me… w_me…     3.49
 3 RSex        RSex       Sex of resp… Female libauth Libe… w_me… w_me…     3.49
 4 RAgeCat     RAgeCat    Age of resp… 18-24  libauth Libe… w_me… w_me…     3.29
 5 RAgeCat     RAgeCat    Age of resp… 25-34  libauth Libe… w_me… w_me…     3.27
 6 RAgeCat     RAgeCat    Age of resp… 35-44  libauth Libe… w_me… w_me…     3.45
 7 RAgeCat     RAgeCat    Age of resp… 45-54  libauth Libe… w_me… w_me…     3.49
 8 RAgeCat     RAgeCat    Age of resp… 55-59  libauth Libe… w_me… w_me…     3.57
 9 RAgeCat     RAgeCat    Age of resp… 60-64  libauth Libe… w_me… w_me…     3.53
10 RAgeCat     RAgeCat    Age of resp… 65+    libauth Libe… w_me… w_me…     3.74
# ℹ 12 more rows
# ℹ 4 more variables: estimate_se <dbl>, base <int>, base_description <lgl>,
#   unweighted_n <int>
…
trial3 %>% print()

# A tibble: 34 × 16
   cross_break   predictor1 predictor2 p_lab1 p_lab2 p_cat1 p_cat2 outcome o_lab
   <chr>         <chr>      <chr>      <chr>  <chr>  <chr>  <chr>  <chr>   <chr>
 1 Total         Total      Total      Total  Total  Total  Total  libauth Libe…
 2 RSex_X_RAgeC… RSex       RAgeCat    Sex o… Age o… Male   18-24  libauth Libe…
 3 RSex_X_RAgeC… RSex       RAgeCat    Sex o… Age o… Male   25-34  libauth Libe…
 4 RSex_X_RAgeC… RSex       RAgeCat    Sex o… Age o… Male   35-44  libauth Libe…
 5 RSex_X_RAgeC… RSex       RAgeCat    Sex o… Age o… Male   45-54  libauth Libe…
 6 RSex_X_RAgeC… RSex       RAgeCat    Sex o… Age o… Male   55-59  libauth Libe…
 7 RSex_X_RAgeC… RSex       RAgeCat    Sex o… Age o… Male   60-64  libauth Libe…
 8 RSex_X_RAgeC… RSex       RAgeCat    Sex o… Age o… Male   65+    libauth Libe…
 9 RSex_X_RAgeC… RSex       RAgeCat    Sex o… Age o… Male   DK/Re… libauth Libe…
10 RSex_X_RAgeC… RSex       RAgeCat    Sex o… Age o… Female 18-24  libauth Libe…
# ℹ 24 more rows
# ℹ 7 more variables: o_cat <chr>, stat <chr>, estimate <dbl>,
#   estimate_se <chr>, base <int>, base_description <chr>, unweighted_n <int>
…
trial1 %>% print()

# A tibble: 22 × 13
   cross_break predictor1 p_lab1       p_cat1 outcome o_lab o_cat stat  estimate
   <chr>       <chr>      <chr>        <chr>  <chr>   <chr> <chr> <chr>    <dbl>
 1 Total       Total      Total        Total  libauth Libe… w_me… w_me…     3.5 
 2 RSex        RSex       Sex of resp… Male   libauth Libe… w_me… w_me…     3.5 
 3 RSex        RSex       Sex of resp… Female libauth Libe… w_me… w_me…     3.5 
 4 RAgeCat     RAgeCat    Age of resp… 18-24  libauth Libe… w_me… w_me…     3.33
 5 RAgeCat     RAgeCat    Age of resp… 25-34  libauth Libe… w_me… w_me…     3.33
 6 RAgeCat     RAgeCat    Age of resp… 35-44  libauth Libe… w_me… w_me…     3.5 
 7 RAgeCat     RAgeCat    Age of resp… 45-54  libauth Libe… w_me… w_me…     3.5 
 8 RAgeCat     RAgeCat    Age of resp… 55-59  libauth Libe… w_me… w_me…     3.67
 9 RAgeCat     RAgeCat    Age of resp… 60-64  libauth Libe… w_me… w_me…     3.5 
10 RAgeCat     RAgeCat    Age of resp… 65+    libauth Libe… w_me… w_me…     3.83
# ℹ 12 more rows
# ℹ 4 more variables: estimate_se <chr>, base <int>, base_description <lgl>,
#   unweighted_n <int>
…
trial2 %>% print()

# A tibble: 126 × 19
   cross_break      predictor1 predictor2 predictor3 p_lab1 p_lab2 p_lab3 p_cat1
   <chr>            <chr>      <chr>      <chr>      <chr>  <chr>  <chr>  <chr> 
 1 Total            Total      Total      Total      Total  Total  Total  Total 
 2 RSex_X_RAgeCat_… RSex       RAgeCat    skipmeal   Sex o… Age o… How o… Male  
 3 RSex_X_RAgeCat_… RSex       RAgeCat    skipmeal   Sex o… Age o… How o… Male  
 4 RSex_X_RAgeCat_… RSex       RAgeCat    skipmeal   Sex o… Age o… How o… Male  
 5 RSex_X_RAgeCat_… RSex       RAgeCat    skipmeal   Sex o… Age o… How o… Male  
 6 RSex_X_RAgeCat_… RSex       RAgeCat    skipmeal   Sex o… Age o… How o… Male  
 7 RSex_X_RAgeCat_… RSex       RAgeCat    skipmeal   Sex o… Age o… How o… Male  
 8 RSex_X_RAgeCat_… RSex       RAgeCat    skipmeal   Sex o… Age o… How o… Male  
 9 RSex_X_RAgeCat_… RSex       RAgeCat    skipmeal   Sex o… Age o… How o… Male  
10 RSex_X_RAgeCat_… RSex       RAgeCat    skipmeal   Sex o… Age o… How o… Male  
# ℹ 116 more rows
# ℹ 11 more variables: p_cat2 <chr>, p_cat3 <chr>, outcome <chr>, o_lab <chr>,
#   o_cat <chr>, stat <chr>, estimate <dbl>, estimate_se <chr>, base <int>,
#   base_description <lgl>, unweighted_n <int>
…
trial1 %>% print()

# A tibble: 22 × 13
   cross_break predictor1 p_lab1       p_cat1 outcome o_lab o_cat stat  estimate
   <chr>       <chr>      <chr>        <chr>  <chr>   <chr> <chr> <chr>    <dbl>
 1 Total       Total      Total        Total  libauth Libe… w_sum w_sum    9022.
 2 RSex        RSex       Sex of resp… Male   libauth Libe… w_sum w_sum    4414.
 3 RSex        RSex       Sex of resp… Female libauth Libe… w_sum w_sum    4608.
 4 RAgeCat     RAgeCat    Age of resp… 18-24  libauth Libe… w_sum w_sum     929.
 5 RAgeCat     RAgeCat    Age of resp… 25-34  libauth Libe… w_sum w_sum    1432.
 6 RAgeCat     RAgeCat    Age of resp… 35-44  libauth Libe… w_sum w_sum    1390.
 7 RAgeCat     RAgeCat    Age of resp… 45-54  libauth Libe… w_sum w_sum    1537.
 8 RAgeCat     RAgeCat    Age of resp… 55-59  libauth Libe… w_sum w_sum     771.
 9 RAgeCat     RAgeCat    Age of resp… 60-64  libauth Libe… w_sum w_sum     707.
10 RAgeCat     RAgeCat    Age of resp… 65+    libauth Libe… w_sum w_sum    2249.
# ℹ 12 more rows
# ℹ 4 more variables: estimate_se <chr>, base <int>, base_description <lgl>,
#   unweighted_n <int>
…
trial2 %>% print()

# A tibble: 126 × 19
   cross_break      predictor1 predictor2 predictor3 p_lab1 p_lab2 p_lab3 p_cat1
   <chr>            <chr>      <chr>      <chr>      <chr>  <chr>  <chr>  <chr> 
 1 Total            Total      Total      Total      Total  Total  Total  Total 
 2 RSex_X_RAgeCat_… RSex       RAgeCat    skipmeal   Sex o… Age o… How o… Male  
 3 RSex_X_RAgeCat_… RSex       RAgeCat    skipmeal   Sex o… Age o… How o… Male  
 4 RSex_X_RAgeCat_… RSex       RAgeCat    skipmeal   Sex o… Age o… How o… Male  
 5 RSex_X_RAgeCat_… RSex       RAgeCat    skipmeal   Sex o… Age o… How o… Male  
 6 RSex_X_RAgeCat_… RSex       RAgeCat    skipmeal   Sex o… Age o… How o… Male  
 7 RSex_X_RAgeCat_… RSex       RAgeCat    skipmeal   Sex o… Age o… How o… Male  
 8 RSex_X_RAgeCat_… RSex       RAgeCat    skipmeal   Sex o… Age o… How o… Male  
 9 RSex_X_RAgeCat_… RSex       RAgeCat    skipmeal   Sex o… Age o… How o… Male  
10 RSex_X_RAgeCat_… RSex       RAgeCat    skipmeal   Sex o… Age o… How o… Male  
# ℹ 116 more rows
# ℹ 11 more variables: p_cat2 <chr>, p_cat3 <chr>, outcome <chr>, o_lab <chr>,
#   o_cat <chr>, stat <chr>, estimate <dbl>, estimate_se <chr>, base <int>,
#   base_description <chr>, unweighted_n <int>
…
trial %>% print()

# A tibble: 101 × 13
   cross_break predictor1 p_lab1 p_cat1 outcome  o_lab      o_cat stat  estimate
   <chr>       <chr>      <chr>  <chr>  <chr>    <chr>      <fct> <chr>    <dbl>
 1 Total       Total      Total  Total  skipmeal How often… skip… w_pe…  0.468  
 2 Total       Total      Total  Total  skipmeal How often… Never w_pe…  0.432  
 3 Total       Total      Total  Total  skipmeal How often… Less… w_pe…  0.0257 
 4 Total       Total      Total  Total  skipmeal How often… Once… w_pe…  0.00809
 5 Total       Total      Total  Total  skipmeal How often… Seve… w_pe…  0.0159 
 6 Total       Total      Total  Total  skipmeal How often… Once… w_pe…  0.00935
 7 Total       Total      Total  Total  skipmeal How often… Seve… w_pe…  0.00862
 8 Total       Total      Total  Total  skipmeal How often… Ever… w_pe…  0.00420
 9 Total       Total      Total  Total  skipmeal How often… Can'… w_pe…  0.0190 
10 Total       Total      Total  Total  skipmeal How often… Not … w_pe…  0.00906
# ℹ 91 more rows
# ℹ 4 more variables: estimate_se <chr>, base <int>, base_description <lgl>,
#   unweighted_n <int>
…
trial2 %>% print()

# A tibble: 240 × 19
   cross_break      predictor1 predictor2 predictor3 p_lab1 p_lab2 p_lab3 p_cat1
   <chr>            <chr>      <chr>      <chr>      <chr>  <chr>  <chr>  <chr> 
 1 Total            Total      Total      Total      Total  Total  Total  Total 
 2 Total            Total      Total      Total      Total  Total  Total  Total 
 3 Total            Total      Total      Total      Total  Total  Total  Total 
 4 Total            Total      Total      Total      Total  Total  Total  Total 
 5 RSex_X_RAgeCat_… RSex       RAgeCat    skipmeal   Sex o… Age o… How o… Male  
 6 RSex_X_RAgeCat_… RSex       RAgeCat    skipmeal   Sex o… Age o… How o… Male  
 7 RSex_X_RAgeCat_… RSex       RAgeCat    skipmeal   Sex o… Age o… How o… Male  
 8 RSex_X_RAgeCat_… RSex       RAgeCat    skipmeal   Sex o… Age o… How o… Male  
 9 RSex_X_RAgeCat_… RSex       RAgeCat    skipmeal   Sex o… Age o… How o… Male  
10 RSex_X_RAgeCat_… RSex       RAgeCat    skipmeal   Sex o… Age o… How o… Male  
# ℹ 230 more rows
# ℹ 11 more variables: p_cat2 <chr>, p_cat3 <chr>, outcome <chr>, o_lab <chr>,
#   o_cat <fct>, stat <chr>, estimate <dbl>, estimate_se <chr>, base <int>,
#   base_description <chr>, unweighted_n <int>
…
trial %>% print()

# A tibble: 101 × 13
   cross_break predictor1 p_lab1 p_cat1 outcome  o_lab      o_cat stat  estimate
   <chr>       <chr>      <chr>  <chr>  <chr>    <chr>      <fct> <chr>    <dbl>
 1 Total       Total      Total  Total  skipmeal How often… skip… w_co…   1508. 
 2 Total       Total      Total  Total  skipmeal How often… Never w_co…   1394. 
 3 Total       Total      Total  Total  skipmeal How often… Less… w_co…     82.7
 4 Total       Total      Total  Total  skipmeal How often… Once… w_co…     26.1
 5 Total       Total      Total  Total  skipmeal How often… Seve… w_co…     51.2
 6 Total       Total      Total  Total  skipmeal How often… Once… w_co…     30.1
 7 Total       Total      Total  Total  skipmeal How often… Seve… w_co…     27.8
 8 Total       Total      Total  Total  skipmeal How often… Ever… w_co…     13.6
 9 Total       Total      Total  Total  skipmeal How often… Can'… w_co…     61.2
10 Total       Total      Total  Total  skipmeal How often… Not … w_co…     29.2
# ℹ 91 more rows
# ℹ 4 more variables: estimate_se <chr>, base <int>, base_description <lgl>,
#   unweighted_n <int>
…
trial %>% print()

# A tibble: 240 × 19
   cross_break      predictor1 predictor2 predictor3 p_lab1 p_lab2 p_lab3 p_cat1
   <chr>            <chr>      <chr>      <chr>      <chr>  <chr>  <chr>  <chr> 
 1 Total            Total      Total      Total      Total  Total  Total  Total 
 2 Total            Total      Total      Total      Total  Total  Total  Total 
 3 Total            Total      Total      Total      Total  Total  Total  Total 
 4 Total            Total      Total      Total      Total  Total  Total  Total 
 5 RSex_X_RAgeCat_… RSex       RAgeCat    skipmeal   Sex o… Age o… How o… Male  
 6 RSex_X_RAgeCat_… RSex       RAgeCat    skipmeal   Sex o… Age o… How o… Male  
 7 RSex_X_RAgeCat_… RSex       RAgeCat    skipmeal   Sex o… Age o… How o… Male  
 8 RSex_X_RAgeCat_… RSex       RAgeCat    skipmeal   Sex o… Age o… How o… Male  
 9 RSex_X_RAgeCat_… RSex       RAgeCat    skipmeal   Sex o… Age o… How o… Male  
10 RSex_X_RAgeCat_… RSex       RAgeCat    skipmeal   Sex o… Age o… How o… Male  
# ℹ 230 more rows
# ℹ 11 more variables: p_cat2 <chr>, p_cat3 <chr>, outcome <chr>, o_lab <chr>,
#   o_cat <fct>, stat <chr>, estimate <dbl>, estimate_se <chr>, base <int>,
#   base_description <chr>, unweighted_n <int>
…
